v 20150930 2
C 42200 46000 1 0 0 DB9-1.sym
{
T 43200 48900 5 10 0 0 0 0 1
device=DB9
T 42400 49300 5 10 1 1 0 0 1
refdes=J1
T 42200 46000 5 10 0 0 0 0 1
footprint=DB9M
}
C 45900 49800 1 0 0 optoisolator_schmitt_trigger-1.sym
{
T 46000 52700 5 8 0 0 0 0 1
symversion=1.0
T 46700 51450 5 10 1 1 0 0 1
refdes=U1
T 46700 51250 5 10 1 1 0 0 1
value=H11L1
T 46700 51050 5 8 1 1 0 0 1
footprint=SMT6
T 45900 49800 5 10 0 0 0 0 1
manufacturer=Fairchild Semiconductor
T 45900 49800 5 10 0 0 0 0 1
manufacturer_pn=H11L1SR2M
T 45900 49800 5 10 0 0 0 0 1
digikey=H11L1SR2MCT-ND
}
C 45900 46800 1 0 0 optoisolator_schmitt_trigger-1.sym
{
T 46000 49700 5 8 0 0 0 0 1
symversion=1.0
T 46700 48450 5 10 1 1 0 0 1
refdes=U2
T 46700 48250 5 10 1 1 0 0 1
value=H11L1
T 46700 48050 5 8 1 1 0 0 1
footprint=SMT6
T 45900 46800 5 10 0 0 0 0 1
manufacturer=Fairchild Semiconductor
T 45900 46800 5 10 0 0 0 0 1
manufacturer_pn=H11L1SR2M
T 45900 46800 5 10 0 0 0 0 1
digikey=H11L1SR2MCT-ND
}
C 45900 43800 1 0 0 optoisolator_schmitt_trigger-1.sym
{
T 46000 46700 5 8 0 0 0 0 1
symversion=1.0
T 46700 45450 5 10 1 1 0 0 1
refdes=U3
T 46700 45250 5 10 1 1 0 0 1
value=H11L1
T 46700 45050 5 8 1 1 0 0 1
footprint=SMT6
T 45900 43800 5 10 0 0 0 0 1
manufacturer=Fairchild Semiconductor
T 45900 43800 5 10 0 0 0 0 1
manufacturer_pn=H11L1SR2M
T 45900 43800 5 10 0 0 0 0 1
digikey=H11L1SR2MCT-ND
}
C 47400 51600 1 270 0 resistor-1.sym
{
T 47800 51300 5 10 0 0 270 0 1
device=RESISTOR
T 47700 51400 5 10 1 1 270 0 1
refdes=R2
T 47400 51600 5 10 0 0 0 0 1
footprint=0805
T 47700 51100 5 10 1 1 270 0 1
value=270
}
C 47400 48600 1 270 0 resistor-1.sym
{
T 47800 48300 5 10 0 0 270 0 1
device=RESISTOR
T 47700 48400 5 10 1 1 270 0 1
refdes=R4
T 47400 48600 5 10 0 0 0 0 1
footprint=0805
T 47700 48100 5 10 1 1 270 0 1
value=270
}
C 47400 45600 1 270 0 resistor-1.sym
{
T 47800 45300 5 10 0 0 270 0 1
device=RESISTOR
T 47700 45400 5 10 1 1 270 0 1
refdes=R6
T 47400 45600 5 10 0 0 0 0 1
footprint=0805
T 47700 45100 5 10 1 1 270 0 1
value=270
}
C 46400 46500 1 0 0 GND.sym
{
T 46500 47900 5 8 0 0 0 0 1
symversion=1.0
T 46500 48100 5 8 0 0 0 0 1
footprint=none
}
C 46400 49500 1 0 0 GND.sym
{
T 46500 50900 5 8 0 0 0 0 1
symversion=1.0
T 46500 51100 5 8 0 0 0 0 1
footprint=none
}
C 46400 43500 1 0 0 GND.sym
{
T 46500 44900 5 8 0 0 0 0 1
symversion=1.0
T 46500 45100 5 8 0 0 0 0 1
footprint=none
}
C 43900 47000 1 0 0 GND.sym
{
T 44000 48400 5 8 0 0 0 0 1
symversion=1.0
T 44000 48600 5 8 0 0 0 0 1
footprint=none
}
N 46500 49900 46500 49800 4
N 46500 46900 46500 46800 4
N 43300 48800 44700 48800 4
N 46500 43800 46500 43900 4
N 47200 50500 49000 50500 4
N 47200 47500 49000 47500 4
N 47200 44500 49000 44500 4
N 46500 51100 46500 51700 4
N 46500 48100 46500 48700 4
N 46500 45100 46500 45800 4
N 43300 47300 44000 47300 4
C 44800 50600 1 0 0 resistor-1.sym
{
T 45100 51000 5 10 0 0 0 0 1
device=RESISTOR
T 45000 50900 5 10 1 1 0 0 1
refdes=R1
T 44800 50600 5 10 0 0 0 0 1
footprint=0805
}
C 44800 48100 1 0 0 resistor-1.sym
{
T 45100 48500 5 10 0 0 0 0 1
device=RESISTOR
T 45000 48400 5 10 1 1 0 0 1
refdes=R3
T 44800 48100 5 10 0 0 0 0 1
footprint=0805
}
C 44800 44600 1 0 0 resistor-1.sym
{
T 45100 45000 5 10 0 0 0 0 1
device=RESISTOR
T 45000 44900 5 10 1 1 0 0 1
refdes=R5
T 44800 44600 5 10 0 0 0 0 1
footprint=0805
}
N 44800 50700 44700 50700 4
N 44700 50700 44700 48800 4
N 45700 50700 45900 50700 4
N 43300 48200 44800 48200 4
N 43300 47600 44800 47600 4
N 44800 47600 44800 44700 4
N 45900 44700 45700 44700 4
C 43500 41200 1 0 0 LEMO.sym
{
T 43850 41850 5 10 0 0 0 0 1
device=LEMO
T 43800 42100 5 10 1 1 180 0 1
refdes=J2
T 43400 41600 5 8 0 0 0 0 1
footprint=LEMO_RA
T 43500 41200 5 10 0 0 0 0 1
manufacturer=LEMO
T 43500 41200 5 10 0 0 0 0 1
manufacturer_pn=EPL.00.250.NTN
T 43500 41200 5 10 0 0 0 0 1
digikey=1124-1008-ND
}
C 45900 40800 1 0 0 optoisolator_schmitt_trigger-1.sym
{
T 46000 43700 5 8 0 0 0 0 1
symversion=1.0
T 46700 42450 5 10 1 1 0 0 1
refdes=U4
T 46700 42250 5 10 1 1 0 0 1
value=H11L1
T 46700 42050 5 8 1 1 0 0 1
footprint=SMT6
T 45900 40800 5 10 0 0 0 0 1
manufacturer=Fairchild Semiconductor
T 45900 40800 5 10 0 0 0 0 1
manufacturer_pn=H11L1SR2M
T 45900 40800 5 10 0 0 0 0 1
digikey=H11L1SR2MCT-ND
}
C 44600 41600 1 0 0 resistor-1.sym
{
T 44900 42000 5 10 0 0 0 0 1
device=RESISTOR
T 44800 41900 5 10 1 1 0 0 1
refdes=R7
T 44600 41600 5 10 0 0 0 0 1
footprint=0805
}
C 47400 42600 1 270 0 resistor-1.sym
{
T 47800 42300 5 10 0 0 270 0 1
device=RESISTOR
T 47700 42400 5 10 1 1 270 0 1
refdes=R8
T 47400 42600 5 10 0 0 0 0 1
footprint=0805
T 47700 42100 5 10 1 1 270 0 1
value=270
}
C 45400 49800 1 0 0 GND.sym
{
T 45500 51200 5 8 0 0 0 0 1
symversion=1.0
T 45500 51400 5 8 0 0 0 0 1
footprint=none
}
C 45400 46800 1 0 0 GND.sym
{
T 45500 48200 5 8 0 0 0 0 1
symversion=1.0
T 45500 48400 5 8 0 0 0 0 1
footprint=none
}
C 45400 43800 1 0 0 GND.sym
{
T 45500 45200 5 8 0 0 0 0 1
symversion=1.0
T 45500 45400 5 8 0 0 0 0 1
footprint=none
}
C 45400 40800 1 0 0 GND.sym
{
T 45500 42200 5 8 0 0 0 0 1
symversion=1.0
T 45500 42400 5 8 0 0 0 0 1
footprint=none
}
N 44600 41700 44000 41700 4
N 45500 41700 45900 41700 4
N 45900 41300 45500 41300 4
N 45500 41300 45500 41100 4
N 45900 44300 45500 44300 4
N 45500 44300 45500 44100 4
N 45900 47300 45500 47300 4
N 45500 47300 45500 47100 4
N 45900 50300 45500 50300 4
N 45500 50300 45500 50100 4
C 46400 40500 1 0 0 GND.sym
{
T 46500 41900 5 8 0 0 0 0 1
symversion=1.0
T 46500 42100 5 8 0 0 0 0 1
footprint=none
}
N 47200 41500 49000 41500 4
N 46500 42100 46500 42700 4
N 46500 40900 46500 40800 4
N 45700 48200 45900 48200 4
N 45900 48200 45900 47700 4
C 49400 44200 1 0 0 7400_NAND_quad.sym
{
T 49600 45300 5 10 1 1 0 0 1
refdes=U7
T 49600 45100 5 10 1 1 0 0 1
value=74LS00
T 49600 44900 5 8 1 1 0 0 1
footprint=SO14
T 50200 44700 5 8 1 0 0 0 1
slot=1
T 49600 47500 5 8 0 0 0 0 1
symversion=1.0
T 49400 44200 5 10 0 0 0 0 1
manufacturer_pn=CD74HC86M96
T 49400 44200 5 10 0 0 0 0 1
manufacturer=Texas Instruments
T 49400 44200 5 10 0 0 0 0 1
digikey=296-3616-1-ND
}
C 49400 41200 1 0 0 7400_NAND_quad.sym
{
T 49600 42300 5 10 1 1 0 0 1
refdes=U7
T 49600 42100 5 10 1 1 0 0 1
value=74LS00
T 49600 41900 5 8 1 1 0 0 1
footprint=SO14
T 50200 41900 5 8 1 0 0 0 1
slot=2
T 49600 44500 5 8 0 0 0 0 1
symversion=1.0
T 49400 41200 5 10 0 0 0 0 1
manufacturer_pn=CD74HC86M96
T 49400 41200 5 10 0 0 0 0 1
manufacturer=Texas Instruments
T 49400 41200 5 10 0 0 0 0 1
digikey=296-3616-1-ND
}
C 49400 37700 1 0 0 7400_NAND_quad.sym
{
T 49600 38800 5 10 1 1 0 0 1
refdes=U7
T 49600 38600 5 10 1 1 0 0 1
value=74LS00
T 49600 38400 5 8 1 1 0 0 1
footprint=SO14
T 50200 38600 5 8 1 0 0 0 1
slot=3
T 49600 41000 5 8 0 0 0 0 1
symversion=1.0
T 49400 37700 5 10 0 0 0 0 1
manufacturer_pn=CD74HC86M96
T 49400 37700 5 10 0 0 0 0 1
manufacturer=Texas Instruments
T 49400 37700 5 10 0 0 0 0 1
digikey=296-3616-1-ND
}
C 49200 48700 1 0 0 7486_XOR_quad.sym
{
T 49700 49800 5 10 1 1 0 0 1
refdes=U6
T 49700 49600 5 10 1 1 0 0 1
value=74HC86
T 49700 49400 5 8 1 1 0 0 1
footprint=SOIC14
T 50300 49400 5 8 1 0 0 0 1
slot=1
T 49700 51900 5 8 0 0 0 0 1
symversion=1.0
T 50100 48900 5 10 0 1 0 0 1
digikey=296-28583-1-ND
T 49200 48700 5 10 0 0 0 0 1
manufacturer_pn=CD74HC86M96
T 49200 48700 5 10 0 0 0 0 1
manufacturer=Texas Instruments
}
N 43700 46700 43300 46700 4
C 45900 37300 1 0 0 optoisolator_schmitt_trigger-1.sym
{
T 46000 40200 5 8 0 0 0 0 1
symversion=1.0
T 46700 38950 5 10 1 1 0 0 1
refdes=U5
T 46700 38750 5 10 1 1 0 0 1
value=H11L1
T 46700 38550 5 8 1 1 0 0 1
footprint=SMT6
T 45900 37300 5 10 0 0 0 0 1
manufacturer=Fairchild Semiconductor
T 45900 37300 5 10 0 0 0 0 1
manufacturer_pn=H11L1SR2M
T 45900 37300 5 10 0 0 0 0 1
digikey=H11L1SR2MCT-ND
}
C 44600 38300 1 0 0 resistor-1.sym
{
T 44900 38700 5 10 0 0 0 0 1
device=RESISTOR
T 44800 38600 5 10 1 1 0 0 1
refdes=R9
T 44600 38300 5 10 0 0 0 0 1
footprint=0805
}
C 47400 39100 1 270 0 resistor-1.sym
{
T 47800 38800 5 10 0 0 270 0 1
device=RESISTOR
T 47700 39000 5 10 1 1 270 0 1
refdes=R10
T 47400 39100 5 10 0 0 0 0 1
footprint=0805
T 47700 38600 5 10 1 1 270 0 1
value=270
}
C 46400 37000 1 0 0 GND.sym
{
T 46500 38400 5 8 0 0 0 0 1
symversion=1.0
T 46500 38600 5 8 0 0 0 0 1
footprint=none
}
C 45400 37300 1 0 0 GND.sym
{
T 45500 38700 5 8 0 0 0 0 1
symversion=1.0
T 45500 38900 5 8 0 0 0 0 1
footprint=none
}
N 46500 37300 46500 37400 4
N 45900 37800 45500 37800 4
N 45500 37800 45500 37600 4
N 45900 38200 45500 38200 4
N 45500 38200 45500 38400 4
N 46500 38600 46500 39300 4
N 47200 38000 49000 38000 4
N 49000 37800 49000 38200 4
N 49000 38200 49400 38200 4
N 49000 37800 49400 37800 4
N 49400 41700 49000 41700 4
N 49000 41300 49000 41700 4
N 49000 41300 49400 41300 4
N 49400 44700 49000 44700 4
N 49000 44300 49000 44700 4
N 49000 44300 49400 44300 4
N 49000 50500 49000 49200 4
N 49000 49200 49500 49200 4
N 49500 48800 49000 48800 4
N 49000 48800 49000 47500 4
C 44000 37400 1 0 1 header2-1.sym
{
T 43000 38050 5 10 0 0 0 6 1
device=HEADER2
T 43600 38700 5 10 1 1 0 6 1
refdes=J3
T 44000 37400 5 10 0 0 180 6 1
footprint=MOLEX_CGRID_2pos_RA
T 44000 37400 5 10 0 0 0 0 1
manufacturer=Molex
T 44000 37400 5 10 0 0 0 0 1
manufacturer_pn=0705530001
T 44000 37400 5 10 0 0 0 0 1
digikey=WM4900-ND
}
C 57300 47800 1 0 0 74_pwr_14pin.sym
{
T 57490 49800 5 8 0 0 0 0 1
symversion=1.0
T 57800 48650 5 10 1 1 0 0 1
refdes=U7
T 57300 47800 5 10 0 0 0 0 1
manufacturer=Texas Instruments
T 57300 47800 5 10 0 0 0 0 1
manufacturer_pn=CD74HC86M96
T 57300 47800 5 10 0 0 0 0 1
digikey=296-3616-1-ND
}
C 57600 47400 1 0 0 GND.sym
{
T 57700 48800 5 8 0 0 0 0 1
symversion=1.0
T 57700 49000 5 8 0 0 0 0 1
footprint=none
}
C 55300 47800 1 0 0 74_pwr_14pin.sym
{
T 55490 49800 5 8 0 0 0 0 1
symversion=1.0
T 55800 48650 5 10 1 1 0 0 1
refdes=U6
T 55300 47800 5 10 0 0 0 0 1
manufacturer=Texas Instruments
T 55300 47800 5 10 0 0 0 0 1
manufacturer_pn=CD74HC86M96
T 55300 47800 5 10 0 0 0 0 1
digikey=296-3616-1-ND
}
C 55600 47400 1 0 0 GND.sym
{
T 55700 48800 5 8 0 0 0 0 1
symversion=1.0
T 55700 49000 5 8 0 0 0 0 1
footprint=none
}
C 55700 48900 1 0 0 capacitor-1.sym
{
T 55900 49600 5 10 0 0 0 0 1
device=CAPACITOR
T 55900 49400 5 10 1 1 0 0 1
refdes=C6
T 55900 49800 5 10 0 0 0 0 1
symversion=0.1
T 55700 48900 5 10 0 0 0 0 1
footprint=0805
}
C 57700 48900 1 0 0 capacitor-1.sym
{
T 57900 49600 5 10 0 0 0 0 1
device=CAPACITOR
T 57900 49400 5 10 1 1 0 0 1
refdes=C7
T 57900 49800 5 10 0 0 0 0 1
symversion=0.1
T 57700 48900 5 10 0 0 0 0 1
footprint=0805
}
C 56500 48800 1 0 0 GND.sym
{
T 56600 50200 5 8 0 0 0 0 1
symversion=1.0
T 56600 50400 5 8 0 0 0 0 1
footprint=none
}
C 58500 48800 1 0 0 GND.sym
{
T 58600 50200 5 8 0 0 0 0 1
symversion=1.0
T 58600 50400 5 8 0 0 0 0 1
footprint=none
}
N 57700 47800 57700 47700 4
N 55700 47700 55700 47800 4
N 55700 49600 55700 48700 4
N 57700 49600 57700 48700 4
N 50300 38000 51000 38000 4
C 51400 48500 1 0 1 LEMO.sym
{
T 51050 49150 5 10 0 0 0 6 1
device=LEMO
T 51400 49200 5 10 1 1 0 6 1
refdes=J4
T 51500 48900 5 8 0 0 0 6 1
footprint=LEMO_RA
T 51400 48500 5 10 0 0 0 0 1
manufacturer=LEMO
T 51400 48500 5 10 0 0 0 0 1
manufacturer_pn=EPL.00.250.NTN
T 51400 48500 5 10 0 0 0 0 1
digikey=1124-1008-ND
}
C 51500 44000 1 0 1 LEMO.sym
{
T 51150 44650 5 10 0 0 0 6 1
device=LEMO
T 51500 44700 5 10 1 1 0 6 1
refdes=J5
T 51600 44400 5 8 0 0 0 6 1
footprint=LEMO_RA
T 51500 44000 5 10 0 0 0 0 1
manufacturer=LEMO
T 51500 44000 5 10 0 0 0 0 1
manufacturer_pn=EPL.00.250.NTN
T 51500 44000 5 10 0 0 0 0 1
digikey=1124-1008-ND
}
C 51000 40500 1 0 0 header2-1.sym
{
T 52000 41150 5 10 0 0 0 0 1
device=HEADER2
T 51400 41800 5 10 1 1 0 0 1
refdes=J6
T 51000 40500 5 10 0 0 0 0 1
footprint=MOLEX_CGRID_2pos_RA
T 51000 40500 5 10 0 0 0 0 1
manufacturer=Molex
T 51000 40500 5 10 0 0 0 0 1
manufacturer_pn=0705530001
T 51000 40500 5 10 0 0 0 0 1
digikey=WM4900-ND
}
N 51000 44500 50300 44500 4
C 47600 51500 1 0 0 CAP0805.sym
{
T 47800 52500 5 10 0 0 0 0 1
device=CAPACITOR
T 47800 52000 5 10 1 1 0 0 1
refdes=C1
T 47800 52700 5 10 0 0 0 0 1
symversion=0.1
T 47800 52300 5 10 0 0 0 0 1
footprint=0805
T 48100 52000 5 10 1 1 0 0 1
value=????
}
C 47600 48500 1 0 0 CAP0805.sym
{
T 47800 49500 5 10 0 0 0 0 1
device=CAPACITOR
T 47800 49000 5 10 1 1 0 0 1
refdes=C2
T 47800 49700 5 10 0 0 0 0 1
symversion=0.1
T 47800 49300 5 10 0 0 0 0 1
footprint=0805
T 48100 49000 5 10 1 1 0 0 1
value=????
}
C 47600 45600 1 0 0 CAP0805.sym
{
T 47800 46600 5 10 0 0 0 0 1
device=CAPACITOR
T 47800 46100 5 10 1 1 0 0 1
refdes=C3
T 47800 46800 5 10 0 0 0 0 1
symversion=0.1
T 47800 46400 5 10 0 0 0 0 1
footprint=0805
T 48100 46100 5 10 1 1 0 0 1
value=????
}
C 47700 39100 1 0 0 CAP0805.sym
{
T 47900 40100 5 10 0 0 0 0 1
device=CAPACITOR
T 47900 39600 5 10 1 1 0 0 1
refdes=C5
T 47900 40300 5 10 0 0 0 0 1
symversion=0.1
T 47900 39900 5 10 0 0 0 0 1
footprint=0805
T 48200 39600 5 10 1 1 0 0 1
value=????
}
C 47300 51700 1 0 0 vcc-1.sym
C 47300 48700 1 0 0 vcc-1.sym
C 47300 45800 1 0 0 vcc-1.sym
C 47300 42700 1 0 0 vcc-1.sym
C 47300 39300 1 0 0 vcc-1.sym
C 55500 49600 1 0 0 vcc-1.sym
C 57500 49600 1 0 0 vcc-1.sym
C 43500 46700 1 0 0 vcc-1.sym
C 51500 37500 1 0 1 LEMO.sym
{
T 51150 38150 5 10 0 0 0 6 1
device=LEMO
T 51500 38200 5 10 1 1 0 6 1
refdes=J7
T 51600 37900 5 8 0 0 0 6 1
footprint=LEMO_RA
T 51500 37500 5 10 0 0 0 0 1
manufacturer=LEMO
T 51500 37500 5 10 0 0 0 0 1
manufacturer_pn=EPL.00.250.NTN
T 51500 37500 5 10 0 0 0 0 1
digikey=1124-1008-ND
}
C 51200 48000 1 0 0 GND.sym
{
T 51300 49400 5 8 0 0 0 0 1
symversion=1.0
T 51300 49600 5 8 0 0 0 0 1
footprint=none
}
C 51300 43700 1 0 0 GND.sym
{
T 51400 45100 5 8 0 0 0 0 1
symversion=1.0
T 51400 45300 5 8 0 0 0 0 1
footprint=none
}
C 51300 37200 1 0 0 GND.sym
{
T 51400 38600 5 8 0 0 0 0 1
symversion=1.0
T 51400 38800 5 8 0 0 0 0 1
footprint=none
}
C 43900 37700 1 0 0 GND.sym
{
T 44000 39100 5 8 0 0 0 0 1
symversion=1.0
T 44000 39300 5 8 0 0 0 0 1
footprint=none
}
C 50900 40800 1 0 0 GND.sym
{
T 51000 42200 5 8 0 0 0 0 1
symversion=1.0
T 51000 42400 5 8 0 0 0 0 1
footprint=none
}
C 43500 40900 1 0 0 GND.sym
{
T 43600 42300 5 8 0 0 0 0 1
symversion=1.0
T 43600 42500 5 8 0 0 0 0 1
footprint=none
}
N 51000 41500 50300 41500 4
N 47500 38200 47500 38000 4
N 47500 41700 47500 41500 4
N 47500 42600 47500 42700 4
N 47500 44700 47500 44500 4
N 47500 47700 47500 47500 4
N 47500 50700 47500 50500 4
N 50900 49000 50400 49000 4
N 44000 38400 44600 38400 4
C 43200 48400 1 0 0 nc.sym
{
T 43300 49900 5 8 0 0 0 0 1
value=NoConnection
T 43300 50700 5 8 0 0 0 0 1
device=DRC_Directive
T 43300 49500 5 8 0 0 0 0 1
symversion=1.0
T 43300 49700 5 8 0 0 0 0 1
footprint=none
}
N 51300 48300 51300 48500 4
T 51600 48900 9 10 1 0 0 0 1
TR ENCODER OUT
C 48400 51400 1 0 0 GND.sym
{
T 48500 52800 5 8 0 0 0 0 1
symversion=1.0
T 48500 53000 5 8 0 0 0 0 1
footprint=none
}
C 48400 45500 1 0 0 GND.sym
{
T 48500 46900 5 8 0 0 0 0 1
symversion=1.0
T 48500 47100 5 8 0 0 0 0 1
footprint=none
}
C 48400 42400 1 0 0 GND.sym
{
T 48500 43800 5 8 0 0 0 0 1
symversion=1.0
T 48500 44000 5 8 0 0 0 0 1
footprint=none
}
C 48500 39000 1 0 0 GND.sym
{
T 48600 40400 5 8 0 0 0 0 1
symversion=1.0
T 48600 40600 5 8 0 0 0 0 1
footprint=none
}
C 48400 48400 1 0 0 GND.sym
{
T 48500 49800 5 8 0 0 0 0 1
symversion=1.0
T 48500 50000 5 8 0 0 0 0 1
footprint=none
}
N 46500 51700 47600 51700 4
N 47500 51600 47500 51700 4
N 46500 48700 47600 48700 4
N 46500 45800 47600 45800 4
N 47500 45800 47500 45600 4
N 47500 48700 47500 48600 4
C 47600 42500 1 0 0 CAP0805.sym
{
T 47800 43500 5 10 0 0 0 0 1
device=CAPACITOR
T 47800 43000 5 10 1 1 0 0 1
refdes=C4
T 47800 43700 5 10 0 0 0 0 1
symversion=0.1
T 47800 43300 5 10 0 0 0 0 1
footprint=0805
T 48100 43000 5 10 1 1 0 0 1
value=????
}
N 47600 42700 46500 42700 4
N 47700 39300 46500 39300 4
N 47500 39100 47500 39300 4
T 51600 44200 9 10 1 0 0 0 1
TR 1DX OUT
T 52000 41500 9 10 1 0 0 0 1
Diffuser STEP
T 51700 37700 9 10 1 0 0 0 1
ACM CAL DIDX
T 40600 37900 9 10 1 0 0 0 1
DIFFUSER ENCODER INDEX
T 41800 41500 9 10 1 0 0 0 1
ACM I/O 1 DSTEP
T 41300 47700 9 10 1 0 0 0 1
T/R I/O
C 43200 47800 1 0 0 nc.sym
{
T 43300 49300 5 8 0 0 0 0 1
value=NoConnection
T 43300 50100 5 8 0 0 0 0 1
device=DRC_Directive
T 43300 48900 5 8 0 0 0 0 1
symversion=1.0
T 43300 49100 5 8 0 0 0 0 1
footprint=none
}
C 43200 46900 1 0 0 nc.sym
{
T 43300 48400 5 8 0 0 0 0 1
value=NoConnection
T 43300 49200 5 8 0 0 0 0 1
device=DRC_Directive
T 43300 48000 5 8 0 0 0 0 1
symversion=1.0
T 43300 48200 5 8 0 0 0 0 1
footprint=none
}
C 43200 46300 1 0 0 nc.sym
{
T 43300 47800 5 8 0 0 0 0 1
value=NoConnection
T 43300 48600 5 8 0 0 0 0 1
device=DRC_Directive
T 43300 47400 5 8 0 0 0 0 1
symversion=1.0
T 43300 47600 5 8 0 0 0 0 1
footprint=none
}
C 43200 46000 1 0 0 nc.sym
{
T 43300 47500 5 8 0 0 0 0 1
value=NoConnection
T 43300 48300 5 8 0 0 0 0 1
device=DRC_Directive
T 43300 47100 5 8 0 0 0 0 1
symversion=1.0
T 43300 47300 5 8 0 0 0 0 1
footprint=none
}
C 54500 39700 1 0 0 ADXL335.sym
{
T 53800 41400 5 10 1 1 0 0 1
refdes=U8
T 53700 41100 5 10 1 1 0 0 1
device=ADXL335
T 54200 40700 5 10 0 1 0 0 1
footprint=ADXL335_breakout
}
C 57100 40300 1 0 0 header3-2.sym
{
T 57100 42300 5 10 0 1 0 0 1
device=HEADER6
T 57700 42400 5 10 1 1 0 0 1
refdes=J8
T 57100 40300 5 10 0 0 0 0 1
footprint=2x3PIN
T 57100 40300 5 10 0 0 0 0 1
manufacturer=Wurth Electronics Inc
T 57100 40300 5 10 0 0 0 0 1
manufacturer_pn=61300621121
T 57100 40300 5 10 0 0 0 0 1
digikey=732-5295-ND
}
C 54900 42000 1 0 0 vcc-1.sym
C 55000 39700 1 0 0 GND.sym
{
T 55100 41100 5 8 0 0 0 0 1
symversion=1.0
T 55100 41300 5 8 0 0 0 0 1
footprint=none
}
C 59700 41300 1 0 1 LEMO.sym
{
T 59350 41950 5 10 0 0 0 6 1
device=LEMO
T 59700 42000 5 10 1 1 0 6 1
refdes=J9
T 59800 41700 5 8 0 0 0 6 1
footprint=BNC_RA
T 59700 41300 5 10 0 0 0 0 1
manufacturer=TE Connectivity AMP Connectors
T 59700 41300 5 10 0 0 0 0 1
manufacturer_pn=5227677-1
T 59700 41300 5 10 0 0 0 0 1
digikey=A32268-ND
}
C 59500 41000 1 0 0 GND.sym
{
T 59600 42400 5 8 0 0 0 0 1
symversion=1.0
T 59600 42600 5 8 0 0 0 0 1
footprint=none
}
T 54800 43200 9 10 1 0 0 0 1
Tiltmeter Circuit
N 58500 41300 58500 42100 4
N 58500 41800 59200 41800 4
N 56500 41600 57100 42100 4
N 56500 41300 57100 41700 4
N 55900 41000 56500 41000 4
N 56500 41000 57100 41300 4
C 56100 38000 1 0 0 hole-1.sym
{
T 56100 37800 5 10 0 1 0 0 1
device=HOLE
T 56300 38600 5 10 1 1 0 4 1
refdes=H1
T 56100 38000 5 10 0 0 0 0 1
footprint=MH_440
}
C 57100 38000 1 0 0 hole-1.sym
{
T 57100 37800 5 10 0 1 0 0 1
device=HOLE
T 57300 38600 5 10 1 1 0 4 1
refdes=H2
T 57100 38000 5 10 0 0 0 0 1
footprint=MH_440
}
C 58200 38000 1 0 0 hole-1.sym
{
T 58200 37800 5 10 0 1 0 0 1
device=HOLE
T 58400 38600 5 10 1 1 0 4 1
refdes=H3
T 58200 38000 5 10 0 0 0 0 1
footprint=MH_440
}
C 59200 38000 1 0 0 hole-1.sym
{
T 59200 37800 5 10 0 1 0 0 1
device=HOLE
T 59400 38600 5 10 1 1 0 4 1
refdes=H4
T 59200 38000 5 10 0 0 0 0 1
footprint=MH_440
}
C 56200 37900 1 0 0 nc.sym
{
T 56300 39400 5 8 0 0 0 0 1
value=NoConnection
T 56300 40200 5 8 0 0 0 0 1
device=DRC_Directive
T 56300 39000 5 8 0 0 0 0 1
symversion=1.0
T 56300 39200 5 8 0 0 0 0 1
footprint=none
}
C 57200 37900 1 0 0 nc.sym
{
T 57300 39400 5 8 0 0 0 0 1
value=NoConnection
T 57300 40200 5 8 0 0 0 0 1
device=DRC_Directive
T 57300 39000 5 8 0 0 0 0 1
symversion=1.0
T 57300 39200 5 8 0 0 0 0 1
footprint=none
}
C 58300 37900 1 0 0 nc.sym
{
T 58400 39400 5 8 0 0 0 0 1
value=NoConnection
T 58400 40200 5 8 0 0 0 0 1
device=DRC_Directive
T 58400 39000 5 8 0 0 0 0 1
symversion=1.0
T 58400 39200 5 8 0 0 0 0 1
footprint=none
}
C 59300 37900 1 0 0 nc.sym
{
T 59400 39400 5 8 0 0 0 0 1
value=NoConnection
T 59400 40200 5 8 0 0 0 0 1
device=DRC_Directive
T 59400 39000 5 8 0 0 0 0 1
symversion=1.0
T 59400 39200 5 8 0 0 0 0 1
footprint=none
}
C 57100 38600 1 0 0 header2-2.sym
{
T 57100 40600 5 10 0 1 0 0 1
device=HEADER6
T 57700 40700 5 10 1 1 0 0 1
refdes=J10
T 57095 39800 5 10 0 1 0 0 1
footprint=2x2PIN
T 57100 38600 5 10 0 0 0 0 1
manufacturer=Wurth Electronics Inc
T 57100 38600 5 10 0 0 0 0 1
manufacturer_pn=61300421121
T 57100 38600 5 10 0 0 0 0 1
digikey=732-5294-ND
}
N 56500 41300 55900 41300 4
N 56500 41600 55900 41600 4
N 55900 40700 57100 40700 4
N 57100 40000 57100 40700 4
N 55900 40400 56500 40400 4
N 56500 40400 56500 39500 4
N 56500 39500 58500 39500 4
N 58500 39500 58500 40000 4
N 58500 40400 59000 40400 4
C 58900 40100 1 0 0 GND.sym
{
T 59000 41500 5 8 0 0 0 0 1
symversion=1.0
T 59000 41700 5 8 0 0 0 0 1
footprint=none
}
T 41300 47400 9 10 1 0 0 0 1
DB9-Male
C 42600 25900 1 0 0 title-battat.sym
{
T 56600 26000 5 10 1 1 0 0 1
author=James Battat
T 56600 26300 5 10 1 1 0 0 1
revision=1
T 52900 26800 5 10 1 1 0 0 1
title=PUT TITLE HERE
}
